read_wasserportal_raw_gw — read_wasserportal_raw_gw • wasserportal
…
#> 7670 2021-01-22               31.08
#> 7671 2021-01-23               31.06
#> 7672 2021-01-24               31.06
#> 7673 2021-01-25               31.05
#> 7674 2021-01-26               31.04
#> 7675 2021-01-27               31.03
#> 7676 2021-01-28               31.05
#> 7677 2021-01-29               31.04
#> 7678 2021-01-30               31.02
#> 7679 2021-01-31               30.97
#> 7680 2021-02-01               30.96
#> 7681 2021-02-02               31.04
read_wasserportal_raw_gw(station = 149, stype = "gwq")

#> # A tibble: 4,227 x 5
#>    Messstellennummer Datum      Parameter                  Einheit      Messwert
#>  *             <dbl> <date>     <chr>                      <chr>           <dbl>
#>  1               149 2005-05-11 Temperatur (Luft)          grd Celsius      6   
#>  2               149 2005-05-11 pH-Wert (Feld)             ohne Einheit     7.4 
#>  3               149 2005-05-11 Temperatur (Wasser)        grd C           13.4 
#>  4               149 2005-05-11 Leitfähigkeit 25°C vor Ort µS/cm         1005.  
#>  5               149 2005-05-11 Wasserst.(ROK) vor         m                3.21
#>  6               149 2005-05-11 Chlorid                    mg/l            54   
#>  7               149 2005-05-11 Fluorid                    mg/l             0.3 
#>  8               149 2005-05-11 Hydrogenkarbonat           mg/l           159.  
#>  9               149 2005-05-11 Nitrit (N)                 mg/l N          -0.01
#> 10               149 2005-05-11 Nitrat (N)                 mg/l N           0.04
#> # … with 4,217 more rows
…
