Surface Water • wasserportal
…
stations_crosstable_berlin <- stations_crosstable %>%
  dplyr::filter(stringr::str_detect(.data$Messstellennummer,
                                    pattern = "^[A-Z]{2}_",
                                    negate = TRUE))
stations_crosstable_berlin
#> # A tibble: 994 × 11
#>    Messstellennummer Messstellenname   ws    df    wt    lf    ph    og    os   
#>    <chr>             <chr>             <chr> <chr> <chr> <chr> <chr> <chr> <chr>
#>  1 5865900           Allee der Kosmon… x     NA    NA    NA    NA    NA    NA   
#>  2 5827103           Allendestraße     x     x     NA    NA    NA    NA    NA   
#>  3 5870400           Alsenbrücke       x     x     NA    NA    NA    NA    NA   
#>  4 5865300           Am Bahndamm       x     x     x     NA    NA    NA    NA   
#>  5 5819900           Am Freibad        x     NA    NA    NA    NA    NA    NA   
#>  6 5864801           Am Kienberg       x     x     NA    NA    NA    NA    NA   
#>  7 5861101           Am Reitweg        x     NA    x     NA    NA    NA    NA   
#>  8 5800107           Am Wolfsschlucht… x     NA    x     NA    NA    NA    NA   
#>  9 5800317           Biesdorfer Bagge… x     NA    x     NA    NA    NA    NA   
#> 10 5867003           Blankenfelde      x     NA    x     NA    NA    NA    NA   
#> # … with 984 more rows, and 2 more variables: gws <chr>, gwq <chr>

station_crosstable_berlin <- stations_crosstable_berlin[1,]
stations_crosstable_berlin
#> # A tibble: 994 × 11
#>    Messstellennummer Messstellenname   ws    df    wt    lf    ph    og    os   
#>    <chr>             <chr>             <chr> <chr> <chr> <chr> <chr> <chr> <chr>
#>  1 5865900           Allee der Kosmon… x     NA    NA    NA    NA    NA    NA   
#>  2 5827103           Allendestraße     x     x     NA    NA    NA    NA    NA   
#>  3 5870400           Alsenbrücke       x     x     NA    NA    NA    NA    NA   
#>  4 5865300           Am Bahndamm       x     x     x     NA    NA    NA    NA   
#>  5 5819900           Am Freibad        x     NA    NA    NA    NA    NA    NA   
#>  6 5864801           Am Kienberg       x     x     NA    NA    NA    NA    NA   
#>  7 5861101           Am Reitweg        x     NA    x     NA    NA    NA    NA   
#>  8 5800107           Am Wolfsschlucht… x     NA    x     NA    NA    NA    NA   
#>  9 5800317           Biesdorfer Bagge… x     NA    x     NA    NA    NA    NA   
#> 10 5867003           Blankenfelde      x     NA    x     NA    NA    NA    NA   
#> # … with 984 more rows, and 2 more variables: gws <chr>, gwq <chr>
…
